<?xml version="1.0" standalone="no"?>
<!DOCTYPE svg PUBLIC "-//W3C//DTD SVG 20010904//EN"
 "http://www.w3.org/TR/2001/REC-SVG-20010904/DTD/svg10.dtd">
<svg version="1.0" xmlns="http://www.w3.org/2000/svg"
 width="512.000000pt" height="512.000000pt" viewBox="0 0 512.000000 512.000000"
 preserveAspectRatio="xMidYMid meet">
<metadata>
Created by potrace 1.11, written by Peter Selinger 2001-2013
</metadata>
<g transform="translate(0.000000,512.000000) scale(0.100000,-0.100000)"
fill="#000000" stroke="none">
<path d="M2250 5070 c-216 -29 -377 -69 -564 -139 -492 -186 -909 -518 -1217
-968 -38 -56 -69 -105 -69 -108 0 -4 -9 -20 -20 -35 -27 -38 -131 -249 -165
-335 -99 -251 -157 -486 -183 -745 -9 -97 -9 -426 1 -510 85 -723 469 -1345
1082 -1755 352 -236 752 -377 1190 -423 136 -14 586 -5 614 13 3 1 29 5 56 8
28 3 74 11 103 17 30 7 59 13 65 14 51 11 276 76 297 86 8 4 53 22 100 40 112
43 281 128 391 196 77 48 245 166 259 183 3 3 32 29 65 56 272 227 512 554
657 895 49 115 109 296 124 375 6 30 18 89 19 95 28 111 40 253 40 450 0 200
-8 300 -34 455 -123 711 -529 1342 -1114 1731 -341 227 -635 336 -1102 409
-22 4 -134 8 -250 9 -160 3 -242 -1 -345 -14z m570 -514 c32 -6 47 -8 120 -22
332 -62 681 -237 944 -474 275 -248 463 -537 587 -899 21 -63 39 -115 39 -116
0 -1 -26 -12 -57 -23 -156 -57 -252 -157 -397 -412 -43 -74 -88 -146 -100
-159 l-24 -23 -39 58 c-22 33 -57 91 -78 129 -171 317 -349 447 -590 432 -103
-6 -126 -12 -205 -49 -120 -57 -236 -192 -358 -418 -19 -36 -50 -84 -68 -108
l-32 -43 -22 23 c-20 21 -130 203 -130 215 0 21 -123 183 -179 236 -57 53
-150 113 -196 124 -63 16 -111 22 -170 22 -226 1 -395 -130 -560 -434 -21 -38
-56 -97 -78 -129 l-40 -60 -29 35 c-16 19 -56 82 -89 141 -148 266 -239 356
-436 434 l-22 9 38 115 c205 617 677 1101 1275 1305 117 40 292 81 386 90 36
4 66 8 69 10 5 6 403 -2 441 -9z m-917 -2058 c14 -18 52 -81 85 -140 119 -211
206 -315 317 -378 162 -93 377 -86 535 16 105 69 183 166 304 382 31 56 68
115 81 130 l24 27 25 -30 c14 -16 46 -68 72 -115 163 -295 283 -414 464 -460
207 -53 411 23 562 211 31 37 143 221 171 279 36 73 38 69 32 -45 -6 -119 -9
-151 -26 -235 -34 -174 -110 -390 -186 -529 -116 -211 -314 -453 -468 -572
-16 -13 -39 -32 -50 -42 -44 -41 -226 -156 -330 -209 -223 -113 -434 -178
-690 -213 -96 -13 -466 -14 -525 -2 -14 3 -43 8 -65 11 -218 32 -443 106 -653
216 -530 279 -903 773 -1011 1340 -20 104 -21 115 -27 230 l-6 115 28 -50
c167 -304 265 -418 419 -482 97 -41 242 -51 335 -22 175 53 284 161 440 435
62 110 98 163 112 164 4 0 18 -15 31 -32z"/>
</g>
</svg>
